<?xml version="1.0" encoding="UTF-8" standalone="no"?>
<svg
   xmlns:dc="http://purl.org/dc/elements/1.1/"
   xmlns:cc="http://creativecommons.org/ns#"
   xmlns:rdf="http://www.w3.org/1999/02/22-rdf-syntax-ns#"
   xmlns:svg="http://www.w3.org/2000/svg"
   xmlns="http://www.w3.org/2000/svg"
   viewBox="0 0 753.25336 387.51999"
   height="387.51999"
   width="753.25336"
   xml:space="preserve"
   id="svg2"
   version="1.1"><metadata
     id="metadata8"><rdf:RDF><cc:Work
         rdf:about=""><dc:format>image/svg+xml</dc:format><dc:type
           rdf:resource="http://purl.org/dc/dcmitype/StillImage" /></cc:Work></rdf:RDF></metadata><defs
     id="defs6"><clipPath
       id="clipPath20"
       clipPathUnits="userSpaceOnUse"><path
         id="path18"
         d="m 2503.48,2294.05 c -103.5,78.9 -242.55,123.49 -390.79,126.16 l 72.43,383.49 -297.61,-392.93 C 1718.04,2386.85 1537.2,2324.82 1375.13,2228 l -217.08,303.4 c 94.61,60.65 192.97,119.03 298.66,163.12 662.15,276.25 1167.31,209.02 1605.28,-56.04 z" /></clipPath><linearGradient
       id="linearGradient26"
       spreadMethod="pad"
       gradientTransform="matrix(844.661,271.846,271.846,-844.661,1542.73,2358.7)"
       gradientUnits="userSpaceOnUse"
       y2="0"
       x2="1"
       y1="0"
       x1="0"><stop
         id="stop22"
         offset="0"
         style="stop-opacity:1;stop-color:#fddc04" /><stop
         id="stop24"
         offset="1"
         style="stop-opacity:1;stop-color:#f68a12" /></linearGradient><clipPath
       id="clipPath36"
       clipPathUnits="userSpaceOnUse"><path
         id="path34"
         d="M 297.629,934.141 C 231.93,1195.59 274.59,1459.92 391.77,1706.16 l 272.429,95.58 -173.609,81.36 c 161.012,250.56 396.808,475.02 667.44,648.27 l 217.08,-303.39 C 1172.44,2104.15 1028.2,1940.25 955.684,1774.54 878.605,1616.22 861.926,1452.44 916.641,1314.32 L 297.629,934.141 M 951.48,1335.72 c -0.539,1 -1.078,2 -1.609,3.01 0.527,-1 1.07,-2.02 1.609,-3.01 v 0" /></clipPath><radialGradient
       id="radialGradient44"
       spreadMethod="pad"
       gradientTransform="matrix(1990.05,0,0,-1990.05,1255.93,2370.31)"
       gradientUnits="userSpaceOnUse"
       r="1"
       cy="0"
       cx="0"
       fy="0"
       fx="0"><stop
         id="stop38"
         offset="0"
         style="stop-opacity:1;stop-color:#00adef" /><stop
         id="stop40"
         offset="0.850394"
         style="stop-opacity:1;stop-color:#176fc0" /><stop
         id="stop42"
         offset="1"
         style="stop-opacity:1;stop-color:#1c63b7" /></radialGradient><clipPath
       id="clipPath54"
       clipPathUnits="userSpaceOnUse"><path
         id="path52"
         d="m 1242.36,356.34 -19.44,175.5 -200.25,-167.039 C 670.051,408.18 404.73,594.93 312.75,881.129 l 666.898,409.861 c 3.782,-5.13 7.563,-10.17 11.524,-15.21 76.048,-94.95 188.098,-155.97 321.478,-182.07 v 0 c -133.38,26.1 -245.43,87.12 -321.478,182.07 -3.961,5.04 -7.742,10.08 -11.524,15.21 l -40.41,-24.84 c 8.192,-14.85 17.192,-29.34 27.184,-43.38 76.768,-107.82 193.948,-178.56 335.428,-210.06 l -56.79,-425.429 100.7,140.188 -27.26,-153.598 331.29,434.969 c 147.78,24.03 319.95,80.01 476.55,169.29 L 2393.91,804.18 C 1994.67,508.531 1589.76,370.199 1242.36,356.34" /></clipPath><radialGradient
       id="radialGradient62"
       spreadMethod="pad"
       gradientTransform="matrix(1990.07,0,0,-1990.07,1255.93,2370.33)"
       gradientUnits="userSpaceOnUse"
       r="1"
       cy="0"
       cx="0"
       fy="0"
       fx="0"><stop
         id="stop56"
         offset="0"
         style="stop-opacity:1;stop-color:#00adef" /><stop
         id="stop58"
         offset="0.850394"
         style="stop-opacity:1;stop-color:#176fc0" /><stop
         id="stop60"
         offset="1"
         style="stop-opacity:1;stop-color:#1c63b7" /></radialGradient><clipPath
       id="clipPath72"
       clipPathUnits="userSpaceOnUse"><path
         id="path70"
         d="m 2858.41,1039.81 -47.27,-0.16 C 1672.5,-124.18 428.152,157.559 224.195,867.262 1.98828,1640.43 779.527,2499.61 1585.81,2789.26 851.676,2640.32 -290.574,1607.31 67.9141,605.922 314.977,-84.1992 1532.27,-285.449 2583.97,538.48 l -79.25,110.758 c 181.55,152.492 304.15,295.594 353.69,390.572 z" /></clipPath><radialGradient
       id="radialGradient80"
       spreadMethod="pad"
       gradientTransform="matrix(1990.06,0,0,-1990.06,1255.93,2370.31)"
       gradientUnits="userSpaceOnUse"
       r="1"
       cy="0"
       cx="0"
       fy="0"
       fx="0"><stop
         id="stop74"
         offset="0"
         style="stop-opacity:1;stop-color:#00adef" /><stop
         id="stop76"
         offset="0.850394"
         style="stop-opacity:1;stop-color:#176fc0" /><stop
         id="stop78"
         offset="1"
         style="stop-opacity:1;stop-color:#1c63b7" /></radialGradient><clipPath
       id="clipPath92"
       clipPathUnits="userSpaceOnUse"><path
         id="path90"
         d="m 1318.5,573.871 27.26,153.598 259.48,361.201 c 149.94,20.52 310.59,74.16 468.99,162.27 v 0 l 52.1,-72.81 c -156.59,-89.28 -328.76,-145.26 -476.54,-169.29 L 1318.5,573.871" /></clipPath><radialGradient
       id="radialGradient100"
       spreadMethod="pad"
       gradientTransform="matrix(1990.07,0,0,-1990.07,1255.93,2370.33)"
       gradientUnits="userSpaceOnUse"
       r="1"
       cy="0"
       cx="0"
       fy="0"
       fx="0"><stop
         id="stop94"
         offset="0"
         style="stop-opacity:1;stop-color:#1b64b8" /><stop
         id="stop96"
         offset="0.850394"
         style="stop-opacity:1;stop-color:#254aa5" /><stop
         id="stop98"
         offset="1"
         style="stop-opacity:1;stop-color:#2745a1" /></radialGradient><clipPath
       id="clipPath110"
       clipPathUnits="userSpaceOnUse"><path
         id="path108"
         d="m 1301.85,1012.71 c -141.48,31.5 -258.66,102.24 -335.428,210.06 -9.992,14.04 -18.992,28.53 -27.184,43.38 l 40.41,24.84 c 3.782,-5.13 7.563,-10.17 11.524,-15.21 76.048,-94.95 188.098,-155.97 321.478,-182.07 l -10.81,-81" /></clipPath><radialGradient
       id="radialGradient118"
       spreadMethod="pad"
       gradientTransform="matrix(1990.07,0,0,-1990.07,1255.93,2370.33)"
       gradientUnits="userSpaceOnUse"
       r="1"
       cy="0"
       cx="0"
       fy="0"
       fx="0"><stop
         id="stop112"
         offset="0"
         style="stop-opacity:1;stop-color:#1b64b8" /><stop
         id="stop114"
         offset="0.850394"
         style="stop-opacity:1;stop-color:#254aa5" /><stop
         id="stop116"
         offset="1"
         style="stop-opacity:1;stop-color:#2745a1" /></radialGradient><clipPath
       id="clipPath130"
       clipPathUnits="userSpaceOnUse"><path
         id="path128"
         d="m 916.641,1314.32 c -54.715,138.12 -38.036,301.9 39.043,460.22 -67.36,-153.92 -72.844,-309.37 -5.813,-435.81 0.531,-1.01 1.07,-2.01 1.609,-3.01 l -34.839,-21.4" /></clipPath><radialGradient
       id="radialGradient138"
       spreadMethod="pad"
       gradientTransform="matrix(1990.05,0,0,-1990.05,1255.93,2370.31)"
       gradientUnits="userSpaceOnUse"
       r="1"
       cy="0"
       cx="0"
       fy="0"
       fx="0"><stop
         id="stop132"
         offset="0"
         style="stop-opacity:1;stop-color:#1b64b8" /><stop
         id="stop134"
         offset="0.850394"
         style="stop-opacity:1;stop-color:#254aa5" /><stop
         id="stop136"
         offset="1"
         style="stop-opacity:1;stop-color:#2745a1" /></radialGradient></defs><g
     transform="matrix(1.3333333,0,0,-1.3333333,0,387.52)"
     id="g10"><g
       transform="scale(0.1)"
       id="g12"><g
         id="g14"><g
           clip-path="url(#clipPath20)"
           id="g16"><path
             id="path28"
             style="fill:url(#linearGradient26);fill-opacity:1;fill-rule:nonzero;stroke:none"
             d="m 2503.48,2294.05 c -103.5,78.9 -242.55,123.49 -390.79,126.16 l 72.43,383.49 -297.61,-392.93 C 1718.04,2386.85 1537.2,2324.82 1375.13,2228 l -217.08,303.4 c 94.61,60.65 192.97,119.03 298.66,163.12 662.15,276.25 1167.31,209.02 1605.28,-56.04 l -558.51,-344.43" /></g></g><g
         id="g30"><g
           clip-path="url(#clipPath36)"
           id="g32"><path
             id="path46"
             style="fill:url(#radialGradient44);fill-opacity:1;fill-rule:nonzero;stroke:none"
             d="M 297.629,934.141 C 231.93,1195.59 274.59,1459.92 391.77,1706.16 l 272.429,95.58 -173.609,81.36 c 161.012,250.56 396.808,475.02 667.44,648.27 l 217.08,-303.39 C 1172.44,2104.15 1028.2,1940.25 955.684,1774.54 878.605,1616.22 861.926,1452.44 916.641,1314.32 L 297.629,934.141 M 951.48,1335.72 c -0.539,1 -1.078,2 -1.609,3.01 0.527,-1 1.07,-2.02 1.609,-3.01 v 0" /></g></g><g
         id="g48"><g
           clip-path="url(#clipPath54)"
           id="g50"><path
             id="path64"
             style="fill:url(#radialGradient62);fill-opacity:1;fill-rule:nonzero;stroke:none"
             d="m 1242.36,356.34 -19.44,175.5 -200.25,-167.039 C 670.051,408.18 404.73,594.93 312.75,881.129 l 666.898,409.861 c 3.782,-5.13 7.563,-10.17 11.524,-15.21 76.048,-94.95 188.098,-155.97 321.478,-182.07 v 0 c -133.38,26.1 -245.43,87.12 -321.478,182.07 -3.961,5.04 -7.742,10.08 -11.524,15.21 l -40.41,-24.84 c 8.192,-14.85 17.192,-29.34 27.184,-43.38 76.768,-107.82 193.948,-178.56 335.428,-210.06 l -56.79,-425.429 100.7,140.188 -27.26,-153.598 331.29,434.969 c 147.78,24.03 319.95,80.01 476.55,169.29 L 2393.91,804.18 C 1994.67,508.531 1589.76,370.199 1242.36,356.34" /></g></g><g
         id="g66"><g
           clip-path="url(#clipPath72)"
           id="g68"><path
             id="path82"
             style="fill:url(#radialGradient80);fill-opacity:1;fill-rule:nonzero;stroke:none"
             d="m 2858.41,1039.81 -47.27,-0.16 C 1672.5,-124.18 428.152,157.559 224.195,867.262 1.98828,1640.43 779.527,2499.61 1585.81,2789.26 851.676,2640.32 -290.574,1607.31 67.9141,605.922 314.977,-84.1992 1532.27,-285.449 2583.97,538.48 l -79.25,110.758 c 181.55,152.492 304.15,295.594 353.69,390.572" /></g></g><path
         id="path84"
         style="fill:#5d65b9;fill-opacity:1;fill-rule:nonzero;stroke:none"
         d="m 1345.76,727.469 0.01,0.031 259.47,361.17 -259.48,-361.201 m 780.57,450.661 -52.1,72.81 52.11,-72.81 v 0" /><g
         id="g86"><g
           clip-path="url(#clipPath92)"
           id="g88"><path
             id="path102"
             style="fill:url(#radialGradient100);fill-opacity:1;fill-rule:nonzero;stroke:none"
             d="m 1318.5,573.871 27.26,153.598 259.48,361.201 c 149.94,20.52 310.59,74.16 468.99,162.27 v 0 l 52.1,-72.81 c -156.59,-89.28 -328.76,-145.26 -476.54,-169.29 L 1318.5,573.871" /></g></g><g
         id="g104"><g
           clip-path="url(#clipPath110)"
           id="g106"><path
             id="path120"
             style="fill:url(#radialGradient118);fill-opacity:1;fill-rule:nonzero;stroke:none"
             d="m 1301.85,1012.71 c -141.48,31.5 -258.66,102.24 -335.428,210.06 -9.992,14.04 -18.992,28.53 -27.184,43.38 l 40.41,24.84 c 3.782,-5.13 7.563,-10.17 11.524,-15.21 76.048,-94.95 188.098,-155.97 321.478,-182.07 l -10.81,-81" /></g></g><path
         id="path122"
         style="fill:#5d65b9;fill-opacity:1;fill-rule:nonzero;stroke:none"
         d="m 916.648,1314.3 c 0,0.01 -0.003,0.01 -0.007,0.02 l 34.839,21.4 v 0 l -34.832,-21.42 m 33.223,24.43 c -67.031,126.44 -61.547,281.89 5.813,435.81 0.367,0.76 0.734,1.51 1.105,2.27 -68.312,-154.66 -74.254,-311 -6.918,-438.08" /><g
         id="g124"><g
           clip-path="url(#clipPath130)"
           id="g126"><path
             id="path140"
             style="fill:url(#radialGradient138);fill-opacity:1;fill-rule:nonzero;stroke:none"
             d="m 916.641,1314.32 c -54.715,138.12 -38.036,301.9 39.043,460.22 -67.36,-153.92 -72.844,-309.37 -5.813,-435.81 0.531,-1.01 1.07,-2.01 1.609,-3.01 l -34.839,-21.4" /></g></g><path
         id="path142"
         style="fill:#1c428d;fill-opacity:1;fill-rule:nonzero;stroke:none"
         d="m 5312.59,1628.69 c -53.91,-77.56 -128.37,-135.35 -207.62,-136.72 -70,-1.24 -135.81,39.05 -95.25,166.72 41.94,132.62 128.45,335.39 128.45,335.39 204.42,82.51 270.8,-22.96 268.46,-104.86 -1.48,-51.93 -27,-164.09 -94.04,-260.53 z m 327.86,356.43 c -37.44,141.22 -148.73,198.33 -305.39,193.18 -39.15,-1.28 -84.89,-7.46 -132.02,-16.26 l 138.29,361.21 h -267.36 l -448.29,-1168.33 -3.41,-8.45 h 0.16 l -0.17,-0.4 0.31,0.4 186.85,0.15 77.17,56.37 c 0,0 42.63,-53.87 133.73,-66.67 232.11,-32.66 427.52,107.08 531.54,268.26 73.41,113.59 117.49,271.62 88.59,380.54" /><path
         id="path144"
         style="fill:#1c428d;fill-opacity:1;fill-rule:nonzero;stroke:none"
         d="m 1947.6,2020.8 c 0,0 -84.82,-229.15 -147.2,-361.67 -60.13,-127.74 -143.09,-171.33 -209.47,-166.79 -72.4,5.02 -115.44,55.5 -113.85,136.73 1.96,100.66 64.25,209.14 108.86,260.56 40.67,46.92 158.23,159.83 361.66,131.17 z m -85.64,157.84 c -177.76,-17.46 -316.04,-68.21 -456.38,-196.51 -108.28,-98.94 -179.01,-254.04 -182.18,-377.18 -4.1,-159.69 115.82,-301.82 353.43,-264.94 64.32,9.95 145.26,63.33 145.26,63.33 l 37.14,-56.36 186.94,-0.18 294.96,769.22 c -57.06,28.69 -198.2,80.42 -379.17,62.62" /><path
         id="path146"
         style="fill:#1c428d;fill-opacity:1;fill-rule:nonzero;stroke:none"
         d="m 3207.04,1454.51 268.75,702.27 h 265.03 l -252.16,-658.75 c 75.26,-39.19 216.39,-17.19 277.11,119.12 l 205.91,539.63 h 266.45 l -253.87,-659.97 c 105.1,-34.55 218.29,-15.97 276.01,120.28 l 206.93,539.69 h 264.33 l -210.86,-545.35 c -52.89,-122.05 -138.93,-289.32 -434,-289.32 -98.83,0 -188.46,34.9 -245.81,80.65 -64.78,-39.66 -200.19,-80.65 -302.19,-80.65 -102,0 -287.3,36.37 -331.63,132.4" /><path
         id="path148"
         style="fill:#1c428d;fill-opacity:1;fill-rule:nonzero;stroke:none"
         d="m 2445.9,2119.4 -296.69,-773.44 h 271.29 l 250.65,649.33 c 35.11,8.88 89.13,16.22 133.84,16.22 87.73,0 125.47,-33.81 119.54,-78.02 -1.31,-10.24 -4.55,-20.54 -9.68,-32.39 l -213.21,-555.14 h 271.57 l 209.77,544.88 c 8.38,22.11 14.74,42.65 17.4,63.29 15.66,119.21 -70.37,220.95 -330.08,221.24 -81.78,0.08 -154.45,-5.27 -201.06,-10.85 -42.52,-5.02 -119.16,-15.94 -223.34,-45.12" /><path
         id="path150"
         style="fill:#e96216;fill-opacity:1;fill-rule:nonzero;stroke:none"
         d="m 2154.92,2641.9 -42.24,-221.6 c 21.6,-0.24 42.04,-1.68 63.38,-3.71 l 62.28,371.61 -83.42,-146.3" /><path
         id="path152"
         style="fill:#ffffff;fill-opacity:1;fill-rule:nonzero;stroke:none"
         d="M 3063.2,2638.44 C 2721.57,2934 2155.77,2986.39 1585.42,2789.01 l 0.61,0.13 C 779.742,2499.49 2.20313,1640.31 224.414,867.141 428.375,157.441 1672.71,-124.301 2811.35,1039.52 h -122.89 c 0,0 -142.94,-138.09 -294.79,-234.879 l 0.42,-0.582 C 1994.9,508.422 1589.95,370.07 1242.57,356.191 L 1223.12,531.672 1022.91,364.68 C 670.242,408.039 404.961,594.762 312.945,881.039 l 666.746,409.941 c -14.109,18.93 -22.445,34.54 -28.191,44.73 L 297.887,934.012 c -65.703,261.488 -23.114,525.818 94.101,772.028 l 272.442,95.6 -173.637,81.31 c 161.004,250.62 396.824,475.08 667.477,648.33 94.62,60.66 192.98,119.03 298.66,163.12 20.7,8.64 41.23,16.93 61.62,24.9 632.04,246.95 1119.38,175.84 1543.65,-80.94 l 1,0.08" /><path
         id="path154"
         style="fill:#ffffff;fill-opacity:1;fill-rule:nonzero;stroke:none"
         d="m 2175.56,2755.63 9.56,48.07 -297.66,-392.9 c 23.59,3.12 42.98,5.5 66.56,7.22 l 221.54,337.61" /><path
         id="path156"
         style="fill:#ffffff;fill-opacity:1;fill-rule:nonzero;stroke:none"
         d="m 1369.41,1084.68 c -26.53,3.58 -32.5,4.58 -56.84,9.05 L 1245,587.289 l 28.12,39.16 96.29,458.231" /></g></g></svg>